335257 580485 470
867857 336862 525
942373 809668 525
291670 806900 509
65913 953838 525
917713 208162 525
280115 301210 389
760837 490568 509
606729 424788 470
370541 772687 509
51310 98901 351
87147 57360 351
635328 406576 509
775984 423494 509
120615 681714 509
734858 830669 468
363612 189505 443
260867 566423 470
780514 113398 509
933411 685149 525
220700 739480 509
613508 535786 452
134072 64882 354
563198 825497 509
565649 27824 470
96208 672759 509
426516 833406 509
326579 521305 470
462547 945248 525
233271 713765 509
742148 878185 525
997740 882692 507
816215 145005 509
960742 125121 525
441866 981762 525
288959 232474 407
716062 345888 509
474692 86840 449
624913 152780 470
886741 215378 525
487176 227166 449
969178 385430 525
129190 875717 525
842510 706391 525
90887 177496 383
71033 984201 525
279334 607028 470
766699 917529 525
836065 958257 525
113753 192481 383
159815 974089 525
153315 723274 509
395717 908528 525
759663 747519 424
50317 646163 509
888205 745361 525
376777 895707 525
477862 206557 449
270103 497706 449
108346 832933 509
787159 693534 504
755703 101174 509
375413 407366 436
295439 674387 509
260354 977502 525
759474 925425 525
111467 65106 354
611522 251702 470
395102 813144 509
705305 263539 509
298462 471362 449
537980 643286 509
840560 998821 507
418100 222484 449
839109 41286 525
665620 195019 509
347181 165397 443
204888 314254 443
938300 240774 525
864079 138818 525
551289 352297 470
122410 62414 354
52581 765858 509
143344 160887 383
629076 655184 416
365685 200130 443
468724 671051 509
735635 225533 509
96928 608840 470
846844 148507 525
394001 243439 441
776796 778419 437
348190 784593 509
420 460377 449
616676 694694 509
881631 753846 525
251787 548233 470
80845 597209 470
972753 777203 525
640650 238762 509
757634 797238 468
873117 280971 525
14053 426787 449
739895 521408 509
961326 470146 525
6407 783801 509
982920 810098 525
950590 940928 383
994140 201526 525
828595 812745 450
887142 5197 525
952624 323688 525
58049 734576 509
53762 852842 525
591825 314391 470
682952 241007 509
689462 265747 509
945530 257659 525
101978 96682 341
510758 455542 444
186548 573352 470
49118 953836 525
570379 515702 452
138916 302720 443
554272 634209 509
764892 758272 380
252525 643217 509
310730 819339 509
399006 503145 449
987364 608307 525
607268 941400 525
826186 688117 504
28872 161375 383
674101 293142 509
473334 806475 509
983966 808942 525
62948 166173 383
784827 536917 509
814273 880271 525
779659 408813 509
659 845429 525
811683 983235 525
398405 494918 449
275731 44463 443
306375 668772 509
560484 664857 509
833171 946906 525
427525 974006 525
103823 490913 449
974703 610733 525
830340 184142 509
996762 154508 525
535577 520459 408
713503 173139 509
77773 466064 449
882362 949668 507
668970 76533 509
905064 435813 525
551622 803208 509
532229 969258 525
917506 639132 525
494801 102702 449
149604 68826 375
277834 534757 470
321166 366504 441
50754 838344 525
234912 460405 449
861815 951594 507
877700 670569 525
582626 944899 525
791636 182357 509
665282 543389 509
165913 626219 470
749928 702391 504
279877 273835 389
990902 281858 525
167784 126931 383
271233 283991 389
884765 230654 525
121259 52538 354
657485 203369 509
28167 555827 470
705488 860170 525
422199 669193 509
443964 187362 449
819501 16370 509
656907 292665 509
686189 967103 525
695550 9533 509
758038 615480 509
860998 396919 525
653115 277481 509
481091 618387 470
302934 188432 443
754462 580979 509
837969 242411 525
815024 481502 509
446666 414593 418
397888 226316 443
889837 724354 525
803235 689455 504
958459 628376 525
548629 105821 470
842081 538017 525
620203 420678 470
731123 753710 424
740923 957912 525
56178 516889 470
398992 349087 436
405538 902341 525
192054 820672 509
192620 631263 509
659577 440031 509
798391 387020 509
10200 94169 351
212849 409402 443
487257 896275 525
570175 275639 470
12049 811116 509
280447 894960 525
592865 836568 509
912920 118068 525
829060 802503 450
452236 110694 449
367056 854731 525
710358 341683 509
764830 977755 525
753536 395283 509
670131 330941 509
528152 756788 509
728209 308676 509
311938 738461 509
240387 969562 525
454430 354852 449
259787 275653 407
439520 146521 449
151458 43236 375
754601 670682 504
496879 271531 449
185421 435440 449
632677 175572 509
415200 545295 470
313799 967460 525
668476 697848 442
361731 808710 509
771455 716184 468
991771 315464 525
268296 11708 443
473040 619294 470
101548 232919 443
68264 71194 312
851469 21528 525
660659 754157 504
928304 266126 525
596602 488629 470
958459 134835 525
304532 435920 449
723829 772070 468
885468 357195 525
513443 625154 452
888545 352522 525
227576 999964 525
388914 96968 443
600266 607901 403
76511 339276 443
529224 412351 470
6352 148653 375
564974 808782 509
503558 471367 426
324391 174741 443
214303 868147 525
401959 342459 441
523146 279115 470
180835 977689 525
761276 35470 509
146289 582293 470
122216 9915 354
92512 403313 443
673552 801009 504
890279 345432 525
642518 159145 509
42500 222632 386
107528 173544 383
305045 814812 509
798798 924461 525
849688 291237 525
299301 481806 449
969969 688492 525
708147 58082 509
948161 681652 525
586287 549294 434
82337 558331 470
921980 213854 525
74644 58494 335
557113 511491 470
236577 107913 443
541051 513160 439
238958 546911 470
775162 170196 509
928624 137426 525
523880 256564 470
949493 457618 525
442471 883757 525
627763 704202 442
860514 249294 525
593487 634276 509
85156 545963 470
72771 772812 509
43216 443058 449
364360 862841 525
539633 95115 470
165134 110285 383
760554 416981 509
224715 815237 509
312039 377827 441
944150 950676 383
306921 465388 449
613048 923169 525
942600 723668 525
206801 134220 383
641676 814698 504
472030 671562 509
218002 478825 449
864020 97337 525
986399 716486 525
356426 196397 443
693252 693442 349
592026 117244 470
622176 328521 470
316430 185452 443
849589 791915 525
759876 704751 424
328571 779918 509
357032 533722 470
680634 478289 509
46388 966440 525
278815 917103 525
104971 317479 443
681249 709590 504
961568 596657 525
170186 466513 449
737684 599451 509
515754 611558 452
798737 922404 525
854705 927135 476
907655 325949 525
177674 855185 525
722940 271542 509
159082 5389 383
481877 123089 449
887480 417850 525
43575 175313 383
396836 34532 443
804843 449584 509
86194 593872 470
851353 81372 525
434917 651754 509
336332 179696 443
261171 352049 441
538591 192147 470
216417 347426 443
110603 914165 525
374292 5290 443
14285 750447 509
709122 987229 525
280795 247904 407
556444 850321 525
814333 870733 525
105562 521349 470
144068 734360 509
529048 99903 470
360681 121103 443
761953 323955 509
56588 925881 525
705161 885739 525
561885 720767 509
596143 357622 470
552097 768736 509
181164 813765 509
917386 277352 525
659296 517246 509
654943 573935 509
217420 678741 509
953544 505172 525
57147 684629 509
649742 509032 509
211412 488388 449
484797 957868 525
485576 342041 449
47395 929113 525
255847 359876 441
790035 729012 468
344019 760829 509
439059 70505 449
879059 542588 525
579821 848603 525
542646 689966 509
357999 672929 509
946839 855448 507
574445 458431 470
686794 352431 509
4771 835348 509
73946 28996 340
322668 233439 407
411673 427229 418
989559 191965 525
734682 94427 509
862391 274425 525
397895 99850 443
771391 921068 525
256843 545312 470
338770 31334 443
956996 641992 525
30989 340727 443
571065 445145 470
625252 27580 470
451902 316657 449
648148 190409 509
208413 439165 449
435065 464016 444
953707 126512 525
970402 569348 525
244583 257625 363
93027 799399 509
909448 626949 525
501570 654284 509
459410 608319 470
359777 133177 443
342364 150482 443
170595 186023 365
862452 388271 525
197563 451437 449
274929 535546 470
167468 994948 525
704541 453166 509
794904 856566 525
929746 627981 525
574966 334668 470
690299 404807 509
314510 754570 509
509145 898553 525
15656 323648 443
786187 750409 468
542304 265308 470
367192 536738 470
825630 597182 509
458686 509388 444
56428 528858 470
387295 934114 525
396034 569584 470
536700 146598 470
110899 153821 375
129962 395480 443
418518 50829 449
675971 296850 509
521363 896268 525
455843 58483 449
863647 558162 525
779511 704752 468
366179 32477 443
390635 883507 525
809568 255413 509
509480 711833 509
510489 671068 509
602689 349551 470
822719 295797 509
268987 335234 407
610604 973449 525
157813 785179 509
396090 78617 443
32453 595721 470
682267 912229 525
537389 849464 525
571813 216232 470
429016 123111 449
583328 240418 470
202245 724620 509
218468 359321 443
291989 292906 340
735970 297116 509
220385 294142 443
927799 749249 525
603761 452335 470
601352 133405 470
868757 87894 525
270878 103154 443
110258 413708 449
962733 157243 525
106298 478101 449
690049 224393 509
5592 519503 470
309141 817976 509
627838 939252 525
733420 67438 509
473787 607935 470
162074 597673 470
261356 69655 443
873627 579167 525
462809 85720 449
862492 58810 525
