843311 176331 525
432812 619247 470
706203 531096 509
350592 311990 441
492061 653591 509
25118 339521 443
894038 362431 525
197805 964556 525
58339 524879 470
178845 508574 449
605357 427776 470
298024 802785 509
416343 79911 449
433314 604381 470
604534 771303 509
455715 168226 449
241802 972729 525
954975 4134 525
806893 427640 509
80020 138499 354
847056 895756 445
243083 430414 449
964931 4884 525
976725 828596 525
548037 543693 452
232413 773185 509
496209 780 449
181364 333536 443
638327 716560 504
394604 467890 449
467794 537439 470
148177 667973 509
550215 588485 434
110686 411568 449
21882 546431 470
390906 36840 443
615346 742989 509
47273 202896 383
560426 405786 470
693412 510377 509
392387 458098 449
532480 109055 470
121692 303209 443
807992 875525 525
319445 359228 441
651273 116397 509
493484 218451 449
9733 134152 354
635532 958724 525
199916 502620 449
606811 989619 525
303099 470209 449
289314 981445 525
170223 481237 449
172148 220489 386
676734 83036 509
551989 390852 470
916483 522768 525
191097 269191 443
505506 231367 449
528936 878302 525
553078 332331 470
887362 370456 525
922245 375216 525
418721 38826 449
661668 156736 509
208232 864779 525
167583 2247 383
276500 363925 441
364981 120510 443
353852 732108 509
523068 133414 470
940733 172956 525
848046 71639 525
647441 259436 509
392686 476647 449
196349 376495 443
591732 369667 470
595141 835040 509
611588 423593 470
469269 821393 509
262210 548926 470
828937 378379 509
680877 808848 504
119485 103559 354
134867 403955 443
885854 766671 525
747746 209142 509
399266 545237 470
187831 527107 470
350082 402478 436
443679 755819 509
887078 386227 525
239095 881813 525
361446 473070 449
389124 180323 443
947930 701520 525
945799 181612 525
763447 544562 509
217941 347607 443
755703 295868 509
597459 618774 447
176765 504277 449
793115 140443 509
846162 775846 525
184206 616767 470
587625 904936 525
90670 686880 509
685954 820446 504
785215 664809 504
846163 958523 507
841498 537025 525
16311 935411 525
203725 279259 443
625755 283498 470
165580 331752 443
88082 959820 525
512872 947864 525
19936 176942 383
894478 279305 525
961452 521080 525
762666 273286 509
364213 52984 443
328981 572626 470
143268 629690 509
76057 558130 470
409079 569671 470
434003 958653 525
176361 187029 365
685423 415501 509
458859 590536 470
773744 761417 468
264594 641021 509
499643 125504 449
238546 45873 443
23557 7924 282
931096 352735 525
650461 168138 509
341278 406443 441
605574 607944 341
743999 285833 509
369975 682176 509
5382 757804 509
80107 581089 470
451948 645646 509
327156 941207 525
804273 925871 525
958757 528591 525
705232 500609 509
928959 739285 525
908614 515872 525
946328 749635 525
137935 496713 449
186100 50646 383
585211 690899 509
363802 758123 509
594327 452698 470
678926 390951 509
735897 487037 509
364663 132126 443
984091 534311 525
11684 205592 383
546320 28738 470
595188 344860 470
482664 107327 449
246391 6557 443
17399 701840 509
375852 31050 443
813814 781534 468
276992 341484 389
118804 360543 443
304579 87714 443
986884 491772 525
272377 252096 407
490242 935159 525
654234 69562 509
853688 775676 525
27021 963281 525
436796 100318 449
113355 692220 509
313200 371596 441
1812 333270 443
530407 195725 470
134424 116274 344
516776 396322 470
181445 947161 525
618391 310068 470
304931 476440 449
667041 433549 509
19953 265697 443
999248 136303 525
470890 529177 470
345249 845062 525
671250 944895 525
620101 451935 470
370930 903245 525
250178 206594 443
818297 821264 450
332040 695619 509
978553 172532 525
740560 953446 525
972784 124477 525
415490 374918 449
746753 37447 509
333224 265574 407
502190 830365 509
364799 527453 470
491101 504485 426
345553 538489 470
568310 132403 470
732834 790432 468
315002 332888 384
170730 940467 525
100658 244541 443
782621 223082 509
719569 490577 509
548971 217831 470
804077 605753 509
725681 477231 509
402250 41092 443
862482 974018 507
361897 37517 443
700532 24074 509
406999 458716 449
771890 400102 509
7575 614399 470
936242 661781 525
692372 559862 509
461187 940348 525
757225 103342 509
173357 873514 525
31068 701144 509
376231 748042 509
906808 687250 525
592329 188435 470
