278357 680535 509
307173 431915 449
213971 76350 383
60512 250721 443
43056 963162 525
110066 282388 443
308067 838040 525
582548 768433 509
720511 191590 509
714232 194929 509
968262 956433 414
108287 581607 470
817253 707763 468
768982 339599 509
903004 84255 525
222074 440215 449
430512 625211 470
832069 625538 509
216834 990930 525
829698 664579 504
29017 303652 443
950715 326555 525
910413 758073 525
262886 657072 509
340270 508154 449
564088 24780 470
874131 646095 525
239220 750615 509
56117 606532 470
526343 320664 470
844103 196695 525
64491 297899 443
355892 911131 525
404367 993680 525
658543 671916 442
174827 934038 525
364200 701998 509
71569 794681 509
828047 546754 509
911624 633410 525
313571 238037 407
820556 81579 509
924441 62186 525
429105 580796 470
716764 767800 424
756298 513230 509
851300 727708 525
516347 15146 470
159061 371903 443
542355 179699 470
522910 15191 470
583250 756324 509
517161 323629 470
3703 342033 443
86757 850385 525
65447 320185 443
711401 944094 525
331236 638054 509
135326 993078 525
333661 788917 509
650650 406201 509
167815 961693 525
277001 637162 509
984624 243043 525
999790 533279 525
919705 619933 525
327784 673353 509
413368 387209 449
292772 4405 443
658617 972576 525
689654 144379 509
158583 79960 383
383821 210472 443
367370 188556 443
224330 64613 386
901216 448765 525
904795 956677 507
753290 529850 509
976034 225216 525
439795 9579 449
986184 643109 525
163486 217819 386
583500 785729 509
673608 401530 509
871680 689037 525
927608 633630 525
40786 553979 470
937123 491614 525
394829 872975 525
974349 70936 525
504615 469678 426
319873 304029 384
902704 741927 525
449566 781912 509
759819 811919 468
550599 466525 470
916800 440641 525
883740 933886 476
62814 991413 525
336077 429958 449
693004 149420 509
989774 281032 525
564762 431774 470
477110 46695 449
146728 903625 525
669209 665220 398
237960 690828 509
931913 4398 525
929843 688140 525
111190 608500 470
212412 467078 449
300939 324037 384
472168 219806 449
81621 275941 443
131805 144770 375
217327 769073 509
93348 485558 449
985949 852648 507
297999 652173 509
595683 199951 470
184446 212960 373
19191 654056 509
872241 530181 525
462273 179159 449
102152 908493 525
706860 147405 509
44334 257622 443
690405 887416 525
597874 841226 525
272588 893881 525
282676 634025 509
616231 719696 509
9988 260073 443
423321 150018 449
130321 310611 443
255360 601886 470
994208 520035 525
97794 262707 443
251305 409872 441
336189 680895 509
947844 780340 525
636124 311004 509
494370 88207 449
530127 660813 509
543520 980575 525
520030 417100 470
875990 926650 476
489615 301376 449
534341 568763 452
330328 380950 441
852493 956597 507
374842 395305 436
801114 905432 525
690645 367272 509
67336 633679 509
915135 530096 525
199039 364455 443
805683 248269 509
918052 482096 525
497810 913344 525
196449 517749 470
408885 433820 449
981919 369327 525
59345 70828 335
755020 512658 509
438675 391525 449
365034 82441 443
844903 170706 525
392483 578042 470
222795 753209 509
728117 96098 509
113487 567375 470
996658 6815 525
222924 35423 386
100797 166629 383
79306 326542 443
461710 374041 449
745582 653407 504
304672 359152 441
892977 447016 525
137923 641574 509
641054 410879 509
65361 653644 509
563838 77051 470
909941 825567 525
234470 842526 525
120452 126353 336
33284 627401 509
368895 571562 470
870130 707676 525
196063 938264 525
321628 775617 509
699153 81469 509
967196 225739 525
128537 789102 509
842762 510183 525
22753 281326 443
665993 300206 509
168697 777234 509
217854 959186 525
670092 913968 525
840651 507729 525
454509 311339 449
725834 511874 509
3173 369102 443
920457 401824 525
528463 779269 509
965598 181842 525
111442 554661 470
776582 563055 509
186087 823279 509
279393 901129 525
646903 845489 525
64694 117238 354
24150 95277 351
215934 684194 509
236520 430145 449
703756 188146 509
485984 882312 525
515091 613877 452
245609 582533 470
452243 563788 470
399347 458650 449
772120 755919 468
950602 623177 525
64015 765467 509
742486 662128 504
424001 804414 509
925250 940085 507
605301 784282 509
725478 308503 509
561515 269134 470
540537 351223 470
840063 731850 525
246654 919289 525
601990 533469 452
971115 151864 525
308507 390101 441
569411 484637 470
860749 865054 344
95203 287101 443
455404 25338 449
369180 885392 525
869717 808880 525
915459 358840 525
46309 653655 509
715505 640971 504
228937 966757 525
18738 899763 525
345000 44761 443
